{
  "success": true,
  "results": [
    {
      "name"  : "Chambéry - Challes-les-Eaux",
      "value" : "45.571515,5.919565" //lat,long
    },
    {
      "name"  : " Lyon Part-Dieu",
      "value" : "45.760705,4.861086"
    },
    {
      "name"  : "Paris Gare de Lyon",
      "value" : "48.844459,2.374377"
    },
    {
      "name"  : "Gare de La Rochelle",
      "value" : "46.152805,-1.145314"
    },
    {
      "name"  : "Paris Bercy Bourgogne - Pays d'Auvergne",
      "value" : "48.839306,2.382742"
    }
  ]
}